<svg xmlns="http://www.w3.org/2000/svg" width="64" height="50" viewBox="0 0 64 50">
    <g fill="#00000A" fill-rule="nonzero">
        <path d="M58.053 47.563V.102H5.947v47.46H.484v2.344h63.009v-2.343h-5.44zM55.71 16.608a3.81 3.81 0 0 1-3.809 3.813 3.81 3.81 0 0 1-3.808-3.813v-3.718h7.617v3.718zM8.29 7.664h18.49V5.32H8.289V2.445H55.71v8.102H8.29V7.664zm37.463 5.227v3.71a3.803 3.803 0 0 1-3.8 3.805 3.803 3.803 0 0 1-3.802-3.804V12.89h7.602zm-9.943 0v3.71A3.81 3.81 0 0 1 32 20.415a3.81 3.81 0 0 1-3.809-3.812V12.89h7.618zm-9.96 0v3.71a3.803 3.803 0 0 1-3.8 3.805 3.803 3.803 0 0 1-3.801-3.804V12.89h7.602zm-17.56 0h7.617v3.71a3.81 3.81 0 0 1-3.808 3.813 3.81 3.81 0 0 1-3.81-3.812V12.89zm19.356 34.664v-18.5H12.098v2.343h13.205v16.165H13.268v-12.5h-2.341v12.5H8.289V21.422a6.123 6.123 0 0 0 8.788-1.227 6.117 6.117 0 0 0 9.943 0 6.133 6.133 0 0 0 9.96 0 6.117 6.117 0 0 0 9.943 0 6.126 6.126 0 0 0 8.788 1.227v26.14l-28.066-.007z"/>
        <path d="M30.283 44.336H53.01V24.852H30.283v19.484zm2.341-17.14H50.67v14.796H34.28l9.897-9.914-1.655-1.656-9.897 9.914v-13.14zM14.907 38.305h3.575v2.344h-3.575zM29.073 5.32h5.502v2.344h-5.502z"/>
        <path d="M39.459 38.773l3.587-3.587 1.657 1.657-3.587 3.587zM34.203 33.502l3.537-3.537 1.658 1.657-3.538 3.538z"/>
    </g>
</svg>
